[
  {
    "id": "arpanet",
    "title": "Alles begann: Gründung der Behörde 'ARPAnet'",
    "state": "",
    "description": "1958 gründete die USA eine Behörde: die Advanced Research Projects Agency (Behörde für fortschrittliche Forschungsprojekte), um gegenüber ihrem Rivalen die Sowjetunion ihre Großmacht zu beweisen. Die ARPA gab staatliches Geld an Universitäten und andere Forschungseinrichtungen, um dadurch die Wissenschaft zu fördern. Zur damaligen Zeit gab es nur an Universitäten und anderen großen Einrichtungen Computer, die zudem sehr groß und teuer waren. Um Computerberechnungen verschiedener Wissenschaftler untereinander auszutauschen, schloss die ARPA 1969 zunächst 4 Großcomputer zu einem Netzwerk zusammen: das ARPAnet war geboren. ",
    "time": "1969",
    "furtherInformation": ""
  },
  {
    "id": "email",
    "title": "Entwicklung erster Programme (z.B. E-Mail)",
    "state": "",
    "description": "In den Jahren nach der Entwicklung des ARPAnets wurden immer mehr Computer an das Netzwerk angeschlossen. An den Universitäten wurden nun auch die Programme (Dienste) dafür programmiert. Unter anderem wurde ein erstes E-Mail Programm entwickelt, das über das ARPAnet lief.",
    "time": "1972",
    "furtherInformation": ""
  },
  {
    "id": "ipv4_tcp",
    "title": "Übertragungsprotokolle (TCP und IPv4)",
    "state": "",
    "description": "Die Daten, die über das Internet zwischen verschiedenen Computern (Komponenten) im Netzwerk ausgetauscht werden, werden unterschiedlich protokolliert. TCP (Transmission Control Protocoll: Übertragungsprotokoll) ist ein solches Netzwerkprotokoll.\n\nIPv4 ist die vierte Version des Internet Protokolls (IP). Es ist bis heute noch weltweit verbreitet. Das IPv4-Format enthält eine Zahlenkombination, die einen Computer im Internet eindeutig identifiziert. Die IP Adresse besteht aus vier bzw. 6 Zahlen zwischen 0 und 255, die durch Punkte voneinander getrennt wird. Zum Beispiel ist das eigene Gerät über die IP Adresse 127.0.0.1 erreichbar.",
    "time": "1981",
    "furtherInformation": ""
  },
  {
    "id": "dns",
    "title": "Eindeutige Namenszuordnung: DNS",
    "state": "",
    "description": "Weil die Zahlenkombinationen im IPv4 Format sehr schwer zu merken sind, wird jeder IP-Adresse noch ein Name zugeordnet. Diese Namen macht man als Adressen der Öffentlichkeit bekannt. Mit der Entwicklung des DNS (Domain Name System, ein Netzwerk-Dienst) können Netzwerkteilnehmer durch eindeutige Namen im Netzwerk erreicht werden. Ein Name, wie beispielsweise 'www.google.de' ist in der Regel einfacher zu merken als die zugehörige IP-Adresse '172.217.0.0'",
    "time": "1984",
    "furtherInformation": ""
  },
  {
    "id": "www",
    "title": "Das WorldWideWeb (WWW) entsteht",
    "state": "",
    "description": "Tim Berners-Lee schrieb ein Programm, mit dem man leicht Informationen in Computernetzwerken veröffentlichen kann. Durch Suchmöglichkeiten und Links, die von einer Seite zu anderen führen, lassen sich die Informationen auch leicht wiederfinden.\n\nEr erkannte, dass er damit nicht nur Informationen in Computern seines Forschungsbetriebes miteinander verbinden kann, sondern Seiten im ganzen Internet, also weltweit. Daher wählte er auch den Namen 'World Wide Web'.",
    "time": "1989"
  },
  {
    "id": "mosaic",
    "title": "Webbrowser (Programm): Mosaic",
    "state": "",
    "description": "Mit der Veröffentlichung und kostenlosen Nutzung des ersten grafikfähigen Webbrowsers (ein Programm, mit denen man Webseiten abrufen und darstellen kann) namens Mosaic konnte jeder, der einen Computer mit Anschluss an das World Wide Web hatte, jede Webseite abrufen.",
    "time": "1993",
    "furtherInformation": ""
  },
  {
    "id": "ipv6",
    "title": "Erweiterung der Adressen mittels IPv6",
    "state": "",
    "description": "IPv4 beinhaltet über 4 Milliarden Adressen. Die immens steigende Anzahl an Webseiten und Teilnehmer im World Wide Web, die jeweils eine eigene IPv4-Adresse zur gleichen Zeit haben, führte zu einer Adressknappheit. Mit IPv6 wurde versucht, die Adressknappheit zu umgehen. Das Format von IPv6 sind 8 Blöcke mit je einer Zahl zwischen 0 und 65.535. IPv6 umfasst 3,4*10^38 (eine 39-stellige Zahl) Adressen. Jedoch wird bis heute immer noch IPv4 benutzt. Die Umstellung auf IPv6 dauert noch an.",
    "time": "1995",
    "furtherInformation": ""
  },
  {
    "id": "social_media",
    "title": "Soziale Medien",
    "state": "",
    "description": "Bereits in den 1980er Jahren gab es die ersten sozialen Netzwerke wie das Bulletin-Board-System (BBS), in denen Benutzer untereinander Nachrichten und Daten austauschen konnten. Ein erstes Forum, das sogenannte Usenet, wurde ebenfalls zu der Zeit veröffentlicht. Foren im Internet sind für Diskussionen und Nachrichtenaustausch konzipiert. Die heute bekannten sozialen Medien wie YouTube (Videos) und Facebook wurden in den 2010er Jahren veröffentlicht. Bei Plattformen wie Facebook stellen Benutzer ihre eigene Person in Form von Profilen anderen Nutzern zum Ansehen zur Verfügung.",
    "time": "Heute",
    "furtherInformation": ""
  },
  {
    "id": "cloud",
    "title": "Cloud",
    "state": "",
    "description": "Immer mehr Daten werden im Internet gespeichert, in einer sogenannten Cloud. Der Vorteil einer Cloud ist die Verfügbarkeit von jedem Gerät von Informationen mit einem Anschluss an das Internet. Jedoch ist die Bereitstellung von persönlichen Daten in einer Cloud auch mit Risiken verbunden. Eine große Aufgabe der heutigen Zeit ist das Finden und Beseitigen von Sicherheitslücken.",
    "time": "Heute",
    "furtherInformation": ""
  },
  {
    "id": "iot",
    "title": "Internet der Dinge",
    "state": "",
    "description": "Der Begriff Internet der Dinge umfasst die Vernetzung von Maschinen mit dem Internet. So können bereits heute einige Küchengeräte, die einen Anschluss an das Internet haben, mit dem Handy gesteuert werden. Smart Home Systeme sind ein weiteres Beispiel für das Internet der Dinge. Dabei lassen sich Haushaltsgeräte wie die Rollladen oder die Heizung über das Internet steuern.",
    "time": "Heute",
    "furtherInformation": ""
  }
]
