[
  {
    "id": "scenario1",
    "description": "qwertzui",
    "alt1": "Das Passwort besteht aus realen Namen oder Wörtern.",
    "alt2": "Das Passwort besteht aus einem realen Datum.",
    "alt3": "Das Passwort besteht aus einer leicht zu erratenen Zeichenfolge.",
    "alt4": "Das Passwort besteht auch einem nicht leicht durchschaubaren Muster von Zeichen."
  },
  {
    "id": "scenario2",
    "description": "i1p@27Oz!5BzhRib",
    "alt1": "Das Passwort besteht aus realen Namen oder Wörtern.",
    "alt2": "Das Passwort besteht aus einem realen Datum.",
    "alt3": "Das Passwort besteht aus einer leicht zu erratenen Zeichenfolge.",
    "alt4": "Das Passwort besteht auch einem nicht leicht durchschaubaren Muster von Zeichen."  },
  {
    "id": "scenario3",
    "description": "Passwort123!",
    "alt1": "Das Passwort besteht aus realen Namen oder Wörtern.",
    "alt2": "Das Passwort besteht aus einem realen Datum.",
    "alt3": "Das Passwort besteht aus einer leicht zu erratenen Zeichenfolge.",
    "alt4": "Das Passwort besteht auch einem nicht leicht durchschaubaren Muster von Zeichen."
  },
  {
    "id": "scenario4",
    "description": "14061951",
    "alt1": "Das Passwort besteht aus realen Namen oder Wörtern.",
    "alt2": "Das Passwort besteht aus einem realen Datum.",
    "alt3": "Das Passwort besteht aus einer leicht zu erratenen Zeichenfolge.",
    "alt4": "Das Passwort besteht auch einem nicht leicht durchschaubaren Muster von Zeichen."
  }
  ,
  {
    "id": "scenario5",
    "description": "ichliebedich",
    "alt1": "Das Passwort besteht aus realen Namen oder Wörtern.",
    "alt2": "Das Passwort besteht aus einem realen Datum.",
    "alt3": "Das Passwort besteht aus einer leicht zu erratenen Zeichenfolge.",
    "alt4": "Das Passwort besteht auch einem nicht leicht durchschaubaren Muster von Zeichen."
  }
]