[
  {
    "id": "scenario1",
    "description": "Eva bereitet eine Präsentation vor. Hierfür benötigt sie noch ein paar Bilder. Im Internet findet sie ein Bild mit der Lizenz CC-BY. Dieses fügt sie in ihre Präsentation ein und schreibt dazu, wer dieses Bild erstellt hat.",
    "alt1": "Das Urheberrecht wird verletzt.",
    "alt2": "Das Recht am eigenen Bild wird verletzt.",
    "alt3": "Eva ist die Urheberin des Bildes.",
    "alt4": "Das Bild steht unter einer Creative Commons Lizenz bzw. der Urheber hat die Nutzung erlaubt."
  },
  {
    "id": "scenario2",
    "description": "Peter veröffentlicht ein Video mit seinen Urlaubsfotos. Als Hintergrundmusik entscheidet er sich für seine aktuellen Lieblingslieder aus dem Radio.",
    "alt1": "Das Urheberrecht wird verletzt.",
    "alt2": "Das Recht am eigenen Bild wird verletzt.",
    "alt3": "Peter ist die Urheberin des Bildes.",
    "alt4": "Das Bild steht unter einer Creative Commons Lizenz bzw. der Urheber hat die Nutzung erlaubt."
  },
  {
    "id": "scenario3",
    "description": "Marie ist Künstlerin und hat ein Bild gemalt. Um es zu verkaufen, macht sie ein Foto von dem Bild und veröffentlicht es in ihrem Online-Shop.",
    "alt1": "Das Urheberrecht wird verletzt.",
    "alt2": "Das Recht am eigenen Bild wird verletzt.",
    "alt3": "Marie ist die Urheberin des Bildes.",
    "alt4": "Das Bild steht unter einer Creative Commons Lizenz bzw. der Urheber hat die Nutzung erlaubt."
  },
  {
    "id": "scenario4",
    "description": "Marc dreht einen Film für ein Schulprojekt und filmt hierfür Menschen auf dem Weihnachtsmarkt. Bei der großen Weihnachtsfeier in der Schule wird sein Film gezeigt.",
    "alt1": "Das Urheberrecht wird verletzt.",
    "alt2": "Das Recht am eigenen Bild wird verletzt.",
    "alt3": "Marc ist die Urheberin des Bildes.",
    "alt4": "Das Bild steht unter einer Creative Commons Lizenz bzw. der Urheber hat die Nutzung erlaubt."
  }
]
