[
  {
    "id": "pre_connection_item1",
    "description": "Ich weiß, wann ich mich mit meinem eigenen WLAN verbinden kann.",
    "type": "likert",
    "jump": 0
  },
  {
    "id": "pre_connection_item2",
    "description": "Ich weiß, wann sich andere Personen mit meinem WLAN verbinden können, bzw. was andere Personen benötigen, damit sie dies können.",
    "type": "likert",
    "jump": 0
  },
  {
    "id": "pre_connection_item3",
    "description": "Ich weiß, wie ich mich mit dem WLAN von anderen (z. B. im Hotel) verbinden kann und was ich dazu benötige.",
    "type": "likert",
    "jump": 0
  },
  {
    "id": "pre_connection_item4",
    "description": "Ich kann ein mobiles Gerät mittels WLAN mit dem Internet verbinden.",
    "type": "likert",
    "jump": 0
  },
  {
    "id": "pre_connection_item5",
    "description": "Ich kann ein mobiles Gerät mittels Mobilfunk mit dem Internet verbinden.",
    "type": "likert",
    "jump": 0
  },
  {
    "id": "pre_connection_item6",
    "description": "Ich kann wiedergeben, was ich benötige, um ein mobiles Gerät mittels Mobilfunk mit dem Internet zu verbinden.",
    "type": "likert",
    "jump": 0
  },
  {
    "id": "pre_connection_item7",
    "description": "Ich kenne den Unterschied zwischen WLAN und Mobilfunk.",
    "type": "likert",
    "jump": 0
  },
  {
    "id": "pre_connection_item8",
    "description": "Ich kann in einer gegebenen Situation entscheiden, ob ich Mobilfunk oder WLAN nutzen kann.",
    "type": "likert",
    "jump": 0
  }
]
