[
  {
    "id": "scenario1",
    "description": "Ein Passwort ist...",
    "alt1": "...ein Geheimnis.",
    "alt2": "...ein perfekter Schutz für persönliche Daten.",
    "alt3": "...ein geteiltes Wissen zwischen zwei Parteien.",
    "alt4": "...immer sicher.",
    "correct1": true,
    "correct2": false,
    "correct3": true,
    "correct4": false
  },
  {
    "id": "scenario2",
    "description": "Ein Passwort wird benutzt...",
    "alt1": "...indem man es an andere Personen weitergibt.",
    "alt2": "...um Daten und Informationen von anderen zu erhalten.",
    "alt3": "...um sich z. B. zusammen mit einem Benutzernamen bei dem eigenen Benutzerkonto anzumelden.",
    "alt4": "...um Daten und Informationen zu sichern.",
    "correct1": false,
    "correct2": false,
    "correct3": true,
    "correct4": true
  },
  {
    "id": "scenario3",
    "description": "Ein perfektes (unknackbares) Passwort...",
    "alt1": "...enthält Zahlen, Buchstaben und Sonderzeichen.",
    "alt2": "...existiert nicht.",
    "alt3": "...besteht aus mindestens 12 Zeichen.",
    "alt4": "...kann man sich sehr leicht merken.",
    "correct1": false,
    "correct2": true,
    "correct3": false,
    "correct4": false
  },
  {
    "id": "scenario4",
    "description": "Ein gutes Passwort...",
    "alt1": "...enthält keine persönlichen Informationen.",
    "alt2": "...enthält nur Kleinbuchstaben.",
    "alt3": "...ist genau 8 Zeichen lang.",
    "alt4": "...enthält keine realen Wörter, Namen oder Daten.",
    "correct1": true,
    "correct2": false,
    "correct3": false,
    "correct4": true
  }
,
  {
    "id": "scenario5",
    "description": "Die Wiederverwendung von Passwörtern...",
    "alt1": "...kann alle Dienste, die mit dem Passwort geschützt sind gefährden, wenn es geknackt wird.",
    "alt2": "...ist bei einem sicheren Passwort kein Problem.",
    "alt3": "...ist bei kleinen Veränderungen des Passworts sicher.",
    "alt4": "...wird nicht empfohlen.",
    "correct1": true,
    "correct2": false,
    "correct3": false,
    "correct4": true
  }
]
