[
  {
    "id": "scenario1",
    "description": "Tom möchte sich ein neues Tablet kaufen. Im Internet informiert er sich über unterschiedliche Modelle. Er sucht nach \"Tablet\" und sieht sich auf den Webseiten der Hersteller nach Preisangeboten um. Als er mit seiner Recherche fertig ist, sieht er sich die Wetterdaten für seinen Wohnort an. Auf der Wetterseite wird ihm neben dem Wetter auch Werbung für Tablets angezeigt.",
    "alt1": "aktueller Standort",
    "alt2": "Wohnort",
    "alt3": "Interesse an Tablets",
    "alt4": "das aktuelle Wetter",
    "sol1": "Der aktuelle Standort von Tom ist in diesem Beispiel bekannt, da jedes Gerät, das mit dem Internet verbunden ist eine eigene Adresse, die so genannte IP-Adresse, besitzt. Toms Interesse an Tablets ist ebenfalls bekannt, da Tom nach diesem Begriff sucht und viele Webseiten zu diesem Thema besucht. Bei Toms Wohnort können wir uns nicht ganz sicher sein. Zwar sucht Tom nach dem Wetter an seinem Wohnort, aber das alleine reicht noch nicht aus, um sicher zu wissen, dass er dort auch wohnt, er könnte dort genauso zu Besuch sein.",
    "alt21": "Personalisierte Werbung",
    "alt22": "Forschung / Wissenschaft",
    "alt23": "Kriminelle Zwecke",
    "alt24": "es besteht kein Interesse an diesen Daten",
    "sol2":  "Hier steht ganz klar personalisierte Werbung im Vordergrund. Tom hat intensiv nach Tablets gesucht und erhält im Anschluss direkt Werbung für diese Produkte. Das Ziel hierbei ist es, dass durch Werbung, die direkt auf die Interessen der jeweiligen Nutzer abgestimmt ist, die Wahrscheinlichkeit erhöht wird, dass ein Interesse an dem angebotenen Produkt entsteht und es bei diesem Anbieter gekauft wird.",
    "sol3": "In diesem Beispiel entstehen eigentlich keine negativen Konsequenzen für Tom. Vielleicht empfindet er es als störend, dass ihm immer wieder Tablets angeboten werden, aber er kann die Werbung einfach ignorieren. Um personalisierte Werbung auf Internetseiten zu verhindern empfiehlt es sich den \"Geheimen Modus\" des Browsers zu nutzen."
  },
  {
    "id": "scenario2",
    "description": "Marie kauft häufig in einem Online-Shop ein. Bei ihrer letzten Bestellung scheint aber etwas schief gegangen zu sein. Sie hat eine E-Mail erhalten, dass sie die Zahlung für ihre Bestellung noch einmal bestätigen muss. Dafür soll sie den, in der Mail angegebenen, Link anklicken und dort ihren Nutzernamen vom Online-Shop, ihr Passwort und ihre Bankdaten eingeben, um den Kauf zu bestätigen.",
    "alt1": "Bankdaten",
    "alt2": "Benutzername und Passwort für den Online-Shop",
    "alt3": "Auskunft, dass sie ein Nutzerkonto bei diesem Online-Shop besitzt",
    "alt4": "E-Mail Adresse",
    "sol1": "In diesem Beispiel stimmen alle Aussagen. Die E-Mail Adresse wird durch das Klicken des Links bestätigt, Benutzername und Passwort für den Online-Shop werden von Marie eingegeben, dadurch ist gleichzeitig klar, dass sie ein entsprechendes Benutzerkonto bei diesem Online-Shop besitzt. Auch die Bankdaten werden von Marie angegeben.",
    "alt21": "Personalisierte Werbung",
    "alt22": "Forschung / Wissenschaft",
    "alt23": "Kriminelle Zwecke",
    "alt24": "es besteht kein Interesse an diesen Daten",
    "sol2":  "Hier stehen wohl kriminelle Zwecke im Vordergrund. Die E-Mail kam nämlich vermutlich nicht vom Online-Shop selbst.",
    "sol3": "In diesem Beispiel können negativen Konsequenzen für Marie entstehen. Die Angreifer kennen nun ihre Bankdaten und können diese für beliebige Zahlungen nutzen. Auch die Zugangsdaten für ihr Konto beim Online-Shop sind bekannt. Dort können die Angreifer jetzt in Maries Namen bestellen und noch weitere Informationen über sie aus ihrem Profil im Online-Shop erhalten. Wenn man eine ähnliche E-Mail bekommt wie Marie hier, dann sollte man auf gar keinen Fall den Link anklicken. Stattdessen sollte man sich direkt auf der Webseite des Online-Shops anmelden und dort nachsehen, ob es Probleme gibt, dann ist man hier auf der sicheren Seite."
  }
]
