[

  {
    "id": "q1",
    "description": "Ein Gerät oder Programm, welches Daten von einem anderen Gerät anfordert nennen wir...",
    "alt1": "Server",
    "alt2": "Client",
    "alt3": "Hub",
    "alt4": "Switch",
    "correct": "Client"
  },
  {
    "id": "q2",
    "description": "Mit welchem Verbindungsstück werden Daten an alle Geräte im Netzwerk weitergeleitet?",
    "alt1": "Server",
    "alt2": "Router",
    "alt3": "Switch",
    "alt4": "Hub",
    "correct": "Hub"
  },
  {
    "id": "q3",
    "description": "Ein Gerät oder Programm, welches Daten für andere Geräte bereitstellt nennen wir...",
    "alt1": "Switch",
    "alt2": "Server",
    "alt3": "Router",
    "alt4": "Client",
    "correct": "Server"
  },
  {
    "id": "q4",
    "description": "Mit wessen Hilfe können viele kleinere Netzwerke untereinander verbunden werden?",
    "alt1": "Hub",
    "alt2": "Router",
    "alt3": "Switch",
    "alt4": "Internet",
    "correct": "Router"
  },
  {
    "id": "q5",
    "description": "Welches Verbindungsstück sendet die Daten nur an das Gerät mit der passenden IP-Adresse weiter?",
    "alt1": "DNS",
    "alt2": "Switch",
    "alt3": "Hub",
    "alt4": "Router",
    "correct": "Switch"
  },
  {
    "id": "q6",
    "description": "Welches Protokoll wird verwendet, wenn es wichtig ist, dass die Daten fehlerfrei und vollständig ankommen, es aber egal ist, wenn es etwas länger dauert, bis die Daten da sind?",
    "alt1": "UDP",
    "alt2": "DNS",
    "alt3": "TCP",
    "alt4": "HTPP",
    "correct": "TCP"
  },
  {
    "id": "q7",
    "description": "Das World Wide Web ist...",
    "alt1": "das Internet.",
    "alt2": "einer von vielen Diensten im Internet.",
    "alt3": "das gleiche wie Google.",
    "alt4": "ein weltumspannendes Netz aus Netzwerken.",
    "correct": "einer von vielen Diensten im Internet."
  },
  {
    "id": "q8",
    "description": "Welches Protokoll wird verwendet, wenn Datenpaket schnell ankommen müssen, es aber egal ist, wenn die Daten unvollständig sind?",
    "alt1": "HTTP",
    "alt2": "DNS",
    "alt3": "UDP",
    "alt4": "TCP",
    "correct": "UDP"
  },
  {
    "id": "q9",
    "description": "Das Internet ist...",
    "alt1": "das gleiche wie Google.",
    "alt2": "ein weltumspannendes Netz aus Netzwerken.",
    "alt3": "das World Wide Web.",
    "alt4": "der Ort an dem Webseiten gespeichert sind.",
    "correct": "ein weltumspannendes Netz aus Netzwerken."
  }


]
